project_arithemetic_logical_unit/project_arithemetic_logical_unit.sim/sim_1/behav/xsim/simulate.log
Time resolution is 1 ps
Time: 0 | a = 1001 , b =1000 , opcode = 0000 | x =0001 , y=0000
Time: 10 | a = 1001 , b =1000 , opcode = 0001 | x =0000 , y=0000
Time: 20 | a = 1001 , b =1000 , opcode = 0010 | x =0000 , y=0000
Time: 30 | a = 1001 , b =1000 , opcode = 0011 | x =1000 , y=0000
Time: 40 | a = 1001 , b =1000 , opcode = 0100 | x =1001 , y=0000
Time: 50 | a = 1001 , b =1000 , opcode = 0101 | x =0001 , y=0000
Time: 60 | a = 1001 , b =1000 , opcode = 0110 | x =0001 , y=0000
Time: 70 | a = 1001 , b =1000 , opcode = 0111 | x =0000 , y=0000
Time: 80 | a = 1001 , b =1000 , opcode = 1000 | x =0000 , y=0000
Time: 90 | a = 1001 , b =1000 , opcode = 1001 | x =0000 , y=0000
Time: 100 | a = 1001 , b =1000 , opcode = 1010 | x =0001 , y=0001
Time: 110 | a = 1001 , b =1000 , opcode = 1011 | x =0001 , y=0000
Time: 120 | a = 1001 , b =1000 , opcode = 1100 | x =1000 , y=0100
Time: 130 | a = 1001 , b =1000 , opcode = 1101 | x =0000 , y=0000
Time: 140 | a = 1001 , b =1000 , opcode = 1110 | x =0000 , y=0000
Time: 150 | a = 1001 , b =1000 , opcode = 1111 | x =0110 , y=0000
$finish called at time : 160 ns : File "C:/Users/hp/.Xilinx/projects/project_arithemetic_logical_unit/project_arithemetic_logical_unit.srcs/sim_1/new/alu_testbench.v" Line 52
